-------------------------------------------------------------------------------
Test set: tasks.model.ArrayTaskListTest
-------------------------------------------------------------------------------
Tests run: 5, Failures: 0, Errors: 0, Skipped: 0, Time elapsed: 0.151 s - in tasks.model.ArrayTaskListTest
