-------------------------------------------------------------------------------
Test set: tasks.model.TasksOperationsTest
-------------------------------------------------------------------------------
Tests run: 8, Failures: 0, Errors: 0, Skipped: 0, Time elapsed: 0.031 s - in tasks.model.TasksOperationsTest
